# Blender MTL File: 'MeierV47.blend'
# Material Count: 1

newmtl Material.3401
Ns 92.156863
Ka 1.000000 1.000000 1.000000
Kd 0.361307 0.361307 0.361307
Ks 1.000000 1.000000 1.000000
Ke 0.000000 0.000000 0.000000
Ni 1.000000
d 1.000000
illum 2
