# Blender v2.76 (sub 0) OBJ File: ''
# www.blender.org
mtllib roof2.mtl
o Cube.026_Cube.001
v 0.593500 1.119999 0.236000
v 0.593500 1.119999 0.211500
v 0.593500 0.999513 0.211500
v 0.593500 0.999513 0.236000
v 0.976000 1.119999 0.211500
v 0.976000 0.999513 0.211500
v 0.976000 1.119999 0.236000
v 0.976000 0.999513 0.236000
vn -1.000000 0.000000 0.000000
vn 0.000000 0.000000 -1.000000
vn 1.000000 0.000000 0.000000
vn 0.000000 -0.000000 1.000000
vn 0.000000 -1.000000 0.000000
vn 0.000000 1.000000 0.000000
usemtl Material.085
s 1
f 1//1 2//1 3//1 4//1
f 2//2 5//2 6//2 3//2
f 5//3 7//3 8//3 6//3
f 7//4 1//4 4//4 8//4
f 4//5 3//5 6//5 8//5
f 7//6 5//6 2//6 1//6
o Cube.028_Cube.000
v 0.593500 1.119999 0.236000
v 0.618000 1.119999 0.236000
v 0.618000 0.999513 0.236000
v 0.593500 0.999513 0.236000
v 0.618000 1.119999 0.381900
v 0.618000 0.999513 0.381900
v 0.593500 1.119999 0.381900
v 0.593500 0.999513 0.381900
vn 0.000000 0.000000 -1.000000
vn 1.000000 0.000000 0.000000
vn 0.000000 -0.000000 1.000000
vn -1.000000 0.000000 0.000000
vn 0.000000 -1.000000 0.000000
vn 0.000000 1.000000 0.000000
usemtl Material.085
s 1
f 9//7 10//7 11//7 12//7
f 10//8 13//8 14//8 11//8
f 13//9 15//9 16//9 14//9
f 15//10 9//10 12//10 16//10
f 12//11 11//11 14//11 16//11
f 15//12 13//12 10//12 9//12
o Cube.030_Cube.000
v 0.000000 1.119999 -0.975500
v 0.024500 1.119999 -0.975500
v 0.024500 0.999513 -0.975500
v 0.000000 0.999513 -0.975500
v 0.024500 1.119999 0.381900
v 0.024500 0.999513 0.381900
v 0.000000 1.119999 0.381900
v 0.000000 0.999513 0.381900
vn 0.000000 0.000000 -1.000000
vn 1.000000 0.000000 0.000000
vn 0.000000 -0.000000 1.000000
vn -1.000000 0.000000 0.000000
vn 0.000000 -1.000000 -0.000000
vn 0.000000 1.000000 0.000000
usemtl Material.085
s 1
f 17//13 18//13 19//13 20//13
f 18//14 21//14 22//14 19//14
f 21//15 23//15 24//15 22//15
f 23//16 17//16 20//16 24//16
f 20//17 19//17 22//17 24//17
f 23//18 21//18 18//18 17//18
o Cube.029_Cube.000
v 0.000050 1.119999 -0.975500
v 0.000050 1.119999 -1.000000
v 0.000050 0.999513 -1.000000
v 0.000050 0.999513 -0.975500
v 0.978050 1.119996 -1.000000
v 0.978050 0.999510 -1.000000
v 0.978050 1.119996 -0.975500
v 0.978050 0.999510 -0.975500
vn -1.000000 0.000000 0.000000
vn -0.000000 0.000000 -1.000000
vn 1.000000 0.000000 0.000000
vn -0.000000 0.000000 1.000000
vn -0.000000 -1.000000 0.000000
vn 0.000000 1.000000 0.000000
usemtl Material.085
s 1
f 25//19 26//19 27//19 28//19
f 26//20 29//20 30//20 27//20
f 29//21 31//21 32//21 30//21
f 31//22 25//22 28//22 32//22
f 28//23 27//23 30//23 32//23
f 31//24 29//24 26//24 25//24
o Cube.031_Cube.000
v 0.000050 1.119999 0.382000
v 0.000050 1.119999 0.357500
v 0.000050 0.999513 0.357500
v 0.000050 0.999513 0.382000
v 0.618050 1.119999 0.357500
v 0.618050 0.999513 0.357500
v 0.618050 1.119999 0.382000
v 0.618050 0.999513 0.382000
vn -1.000000 0.000000 0.000000
vn 0.000000 0.000000 -1.000000
vn 1.000000 0.000000 0.000000
vn 0.000000 -0.000000 1.000000
vn 0.000000 -1.000000 0.000000
vn 0.000000 1.000000 0.000000
usemtl Material.085
s 1
f 33//25 34//25 35//25 36//25
f 34//26 37//26 38//26 35//26
f 37//27 39//27 40//27 38//27
f 39//28 33//28 36//28 40//28
f 36//29 35//29 38//29 40//29
f 39//30 37//30 34//30 33//30
o Cube.027_Cube.000
v 0.975500 1.119999 -1.000000
v 1.000000 1.119999 -1.000000
v 1.000000 0.999513 -1.000000
v 0.975500 0.999513 -1.000000
v 1.000000 1.119999 0.236100
v 1.000000 0.999513 0.236100
v 0.975500 1.119999 0.236100
v 0.975500 0.999513 0.236100
vn 0.000000 0.000000 -1.000000
vn 1.000000 0.000000 0.000000
vn 0.000000 -0.000000 1.000000
vn -1.000000 0.000000 0.000000
vn 0.000000 -1.000000 -0.000000
vn 0.000000 1.000000 0.000000
usemtl Material.085
s 1
f 41//31 42//31 43//31 44//31
f 42//32 45//32 46//32 43//32
f 45//33 47//33 48//33 46//33
f 47//34 41//34 44//34 48//34
f 44//35 43//35 46//35 48//35
f 47//36 45//36 42//36 41//36
